/Users/saba.nafees/miniconda3/envs/napari/bin/python /Users/saba.nafees/PycharmProjects/TFBS/pho4/pho4_r4/updated-first-order/tfbs-refactored-firstorder.py
mean
var
cov
reg11
PakiDim
P1i1
varP1i1
cov11i1
reg11i1
Pa1i1
P1D
varP1D
computed rFon1D
Regression of trait on site 1
[[ 0.0228389278 -0.0120356158 -0.0060114734 -0.0050367347]
 [ 0.0303192562 -0.0282543151  0.0053023462 -0.0079174055]
 [ 0.0185092071 -0.01645826   -0.0258304344  0.0233733589]
 [ 0.0179099088 -0.032489721  -0.0636791232  0.0770118754]
 [ 0.0412534974 -0.1160615039 -0.1187981259  0.1931123343]
 [ 0.2034263279 -0.1349534522 -0.0836186954  0.0165841628]
 [ 0.1049190332 -0.0611477224 -0.0003429894 -0.0430205194]
 [ 0.0460596733 -0.053973561   0.0198511935 -0.0117480474]
 [ 0.0238819009 -0.0187206233 -0.0054956096  0.0003013011]
 [ 0.0108017422 -0.0118607625 -0.0023223595  0.0033520044]]
Regression on 1st order polynomial - orthogonalized within - rFon1D
[[ 0.022288214  -0.0127369664 -0.0045910068 -0.0051706995]
 [ 0.0299016311 -0.0272142741  0.0060986038 -0.0093377158]
 [ 0.0175598288 -0.0158409812 -0.0253564356  0.0232260489]
 [ 0.0164237993 -0.033236831  -0.0626581839  0.0782776563]
 [ 0.0408701419 -0.1159688977 -0.1196146312  0.1943454007]
 [ 0.2030867504 -0.1346623242 -0.0844792532  0.0175894774]
 [ 0.1046289071 -0.0606661557 -0.0006575177 -0.0428777299]
 [ 0.            0.            0.            0.          ]
 [ 0.0234475901 -0.0196469388 -0.00529322    0.0014728593]
 [ 0.            0.            0.            0.          ]]
Regression of trait on site 2 independent of 1
[0. 0. 0. 0.]
Regression on (site 1)x(site 2), independent of first order
[[0. 0. 0. 0.]
 [0. 0. 0. 0.]
 [0. 0. 0. 0.]
 [0. 0. 0. 0.]]
--- 8218.559457063675 seconds ---

Process finished with exit code 0
