 2.25532376e-02  2.95055998e-03 -7.90756856e-03  -1.89674469e-02
-3.97186260e-04  1.79405926e-02  1.66586163e-02  -3.64045784e-02
 3.94993058e-03  5.20271765e-03 -1.99443268e-03  -7.83707460e-03
 6.11003453e-05  3.44731586e-02 -2.10848301e-02  -1.58108392e-02
 1.04963428e-02  6.52532826e-02 -2.85209544e-02  -5.14537865e-02
 6.35684623e-02  3.28482016e-03 -4.22497446e-02  -2.21767133e-02
 1.29790269e-02 -5.25999654e-03  3.04070798e-03  -1.10919529e-02
 4.30058507e-04  9.12329204e-03  2.91739478e-03  -1.36113827e-02
 1.31388932e-02 -8.52588865e-03  1.42568586e-02  -2.04929349e-02
 8.94761139e-03  1.83416509e-04 -5.09793505e-05  -9.83110767e-03
