3	4	1	1	-0.109367538
5	6	2	2	-0.108624299
4	5	3	0	-0.066528113
7	8	0	1	-0.053166696
0	1	1	2	0.047583878
2	3	3	0	-0.0455772
5	8	0	3	0.041735221
4	6	3	0	-0.041453253
1	5	1	0	-0.041255202
2	4	1	0	0.040545352
