%!PS-Adobe-3.0 EPSF-1.2
%%BoundingBox: -10 0 300 100

/Times-Roman findfont 6 scalefont setfont

1 setlinejoin

25 20 translate

4 -16 moveto
(1) show
0 -1 moveto
0 -5 rlineto
stroke
gsave
/Times-Roman findfont 3.5 scalefont setfont
0 1 1 0 setcmykcolor
0.5 -10 moveto
(A) show
2 -1 moveto
0 -3 rlineto
stroke
1 1 0 0 setcmykcolor
2.7 -8 moveto
(C) show
4 -1 moveto
0 -3 rlineto
stroke
1 0 1 0 setcmykcolor
4.6 -10 moveto
(G) show
6 -1 moveto
0 -3 rlineto
stroke
0 0 1 0.3 setcmykcolor
6.8 -8 moveto
(U) show
8 -1 moveto
0 -3 rlineto
stroke
grestore
14 -16 moveto
(2) show
10 -1 moveto
0 -5 rlineto
stroke
gsave
/Times-Roman findfont 3.5 scalefont setfont
0 1 1 0 setcmykcolor
10.5 -10 moveto
(A) show
12 -1 moveto
0 -3 rlineto
stroke
1 1 0 0 setcmykcolor
12.7 -8 moveto
(C) show
14 -1 moveto
0 -3 rlineto
stroke
1 0 1 0 setcmykcolor
14.6 -10 moveto
(G) show
16 -1 moveto
0 -3 rlineto
stroke
0 0 1 0.3 setcmykcolor
16.8 -8 moveto
(U) show
18 -1 moveto
0 -3 rlineto
stroke
grestore
24 -16 moveto
(3) show
20 -1 moveto
0 -5 rlineto
stroke
gsave
/Times-Roman findfont 3.5 scalefont setfont
0 1 1 0 setcmykcolor
20.5 -10 moveto
(A) show
22 -1 moveto
0 -3 rlineto
stroke
1 1 0 0 setcmykcolor
22.7 -8 moveto
(C) show
24 -1 moveto
0 -3 rlineto
stroke
1 0 1 0 setcmykcolor
24.6 -10 moveto
(G) show
26 -1 moveto
0 -3 rlineto
stroke
0 0 1 0.3 setcmykcolor
26.8 -8 moveto
(U) show
28 -1 moveto
0 -3 rlineto
stroke
grestore
34 -16 moveto
(4) show
30 -1 moveto
0 -5 rlineto
stroke
gsave
/Times-Roman findfont 3.5 scalefont setfont
0 1 1 0 setcmykcolor
30.5 -10 moveto
(A) show
32 -1 moveto
0 -3 rlineto
stroke
1 1 0 0 setcmykcolor
32.7 -8 moveto
(C) show
34 -1 moveto
0 -3 rlineto
stroke
1 0 1 0 setcmykcolor
34.6 -10 moveto
(G) show
36 -1 moveto
0 -3 rlineto
stroke
0 0 1 0.3 setcmykcolor
36.8 -8 moveto
(U) show
38 -1 moveto
0 -3 rlineto
stroke
grestore
44 -16 moveto
(5) show
40 -1 moveto
0 -5 rlineto
stroke
gsave
/Times-Roman findfont 3.5 scalefont setfont
0 1 1 0 setcmykcolor
40.5 -10 moveto
(A) show
42 -1 moveto
0 -3 rlineto
stroke
1 1 0 0 setcmykcolor
42.7 -8 moveto
(C) show
44 -1 moveto
0 -3 rlineto
stroke
1 0 1 0 setcmykcolor
44.6 -10 moveto
(G) show
46 -1 moveto
0 -3 rlineto
stroke
0 0 1 0.3 setcmykcolor
46.8 -8 moveto
(U) show
48 -1 moveto
0 -3 rlineto
stroke
grestore
54 -16 moveto
(6) show
50 -1 moveto
0 -5 rlineto
stroke
gsave
/Times-Roman findfont 3.5 scalefont setfont
0 1 1 0 setcmykcolor
50.5 -10 moveto
(A) show
52 -1 moveto
0 -3 rlineto
stroke
1 1 0 0 setcmykcolor
52.7 -8 moveto
(C) show
54 -1 moveto
0 -3 rlineto
stroke
1 0 1 0 setcmykcolor
54.6 -10 moveto
(G) show
56 -1 moveto
0 -3 rlineto
stroke
0 0 1 0.3 setcmykcolor
56.8 -8 moveto
(U) show
58 -1 moveto
0 -3 rlineto
stroke
grestore
64 -16 moveto
(7) show
60 -1 moveto
0 -5 rlineto
stroke
gsave
/Times-Roman findfont 3.5 scalefont setfont
0 1 1 0 setcmykcolor
60.5 -10 moveto
(A) show
62 -1 moveto
0 -3 rlineto
stroke
1 1 0 0 setcmykcolor
62.7 -8 moveto
(C) show
64 -1 moveto
0 -3 rlineto
stroke
1 0 1 0 setcmykcolor
64.6 -10 moveto
(G) show
66 -1 moveto
0 -3 rlineto
stroke
0 0 1 0.3 setcmykcolor
66.8 -8 moveto
(U) show
68 -1 moveto
0 -3 rlineto
stroke
grestore
74 -16 moveto
(8) show
70 -1 moveto
0 -5 rlineto
stroke
gsave
/Times-Roman findfont 3.5 scalefont setfont
0 1 1 0 setcmykcolor
70.5 -10 moveto
(A) show
72 -1 moveto
0 -3 rlineto
stroke
1 1 0 0 setcmykcolor
72.7 -8 moveto
(C) show
74 -1 moveto
0 -3 rlineto
stroke
1 0 1 0 setcmykcolor
74.6 -10 moveto
(G) show
76 -1 moveto
0 -3 rlineto
stroke
0 0 1 0.3 setcmykcolor
76.8 -8 moveto
(U) show
78 -1 moveto
0 -3 rlineto
stroke
grestore
84 -16 moveto
(9) show
80 -1 moveto
0 -5 rlineto
stroke
gsave
/Times-Roman findfont 3.5 scalefont setfont
0 1 1 0 setcmykcolor
80.5 -10 moveto
(A) show
82 -1 moveto
0 -3 rlineto
stroke
1 1 0 0 setcmykcolor
82.7 -8 moveto
(C) show
84 -1 moveto
0 -3 rlineto
stroke
1 0 1 0 setcmykcolor
84.6 -10 moveto
(G) show
86 -1 moveto
0 -3 rlineto
stroke
0 0 1 0.3 setcmykcolor
86.8 -8 moveto
(U) show
88 -1 moveto
0 -3 rlineto
stroke
grestore
94 -16 moveto
(10) show
90 -1 moveto
0 -5 rlineto
stroke
gsave
/Times-Roman findfont 3.5 scalefont setfont
0 1 1 0 setcmykcolor
90.5 -10 moveto
(A) show
92 -1 moveto
0 -3 rlineto
stroke
1 1 0 0 setcmykcolor
92.7 -8 moveto
(C) show
94 -1 moveto
0 -3 rlineto
stroke
1 0 1 0 setcmykcolor
94.6 -10 moveto
(G) show
96 -1 moveto
0 -3 rlineto
stroke
0 0 1 0.3 setcmykcolor
96.8 -8 moveto
(U) show
98 -1 moveto
0 -3 rlineto
stroke
grestore
104 -16 moveto
(11) show
100 -1 moveto
0 -5 rlineto
stroke
gsave
/Times-Roman findfont 3.5 scalefont setfont
0 1 1 0 setcmykcolor
100.5 -10 moveto
(A) show
102 -1 moveto
0 -3 rlineto
stroke
1 1 0 0 setcmykcolor
102.7 -8 moveto
(C) show
104 -1 moveto
0 -3 rlineto
stroke
1 0 1 0 setcmykcolor
104.6 -10 moveto
(G) show
106 -1 moveto
0 -3 rlineto
stroke
0 0 1 0.3 setcmykcolor
106.8 -8 moveto
(U) show
108 -1 moveto
0 -3 rlineto
stroke
grestore
112 -16 moveto
(12) show
110 -1 moveto
0 -5 rlineto
stroke
gsave
/Times-Roman findfont 3.5 scalefont setfont
0 1 1 0 setcmykcolor
110.5 -10 moveto
(A) show
112 -1 moveto
0 -3 rlineto
stroke
1 1 0 0 setcmykcolor
112.7 -8 moveto
(C) show
114 -1 moveto
0 -3 rlineto
stroke
1 0 1 0 setcmykcolor
114.6 -10 moveto
(G) show
116 -1 moveto
0 -3 rlineto
stroke
0 0 1 0.3 setcmykcolor
116.8 -8 moveto
(U) show
118 -1 moveto
0 -3 rlineto
stroke
grestore
0 -1 moveto
120 -1 lineto
stroke

-30 -9 moveto
(Nucleotide) show
-20 -16 moveto
(Site) show
gsave
/Times-Roman findfont 10 scalefont setfont
-20 100 moveto
(Regressions of phenotypes onto site pairs) show
-20 90 moveto
(at different sites) show
1 1 0 0 setcmykcolor
-20 80 moveto
30 0 rlineto
stroke
15 77.5 moveto
(Positive) show
0 0 1 .3 setcmykcolor
-20 70 moveto
30 0 rlineto
stroke
15 67 moveto
(Negative) show
grestore
gsave
1 1 0 0 setcmykcolor
14.0 0 translate

0 0 moveto
0.35363734 setlinewidth
28.0 28.0
56.0 28.0
84.0 0 curveto
stroke

grestore

gsave
1 1 0 0 setcmykcolor
42.0 0 translate

0 0 moveto
0.29822249 setlinewidth
11.333333333333334 11.333333333333334
22.666666666666668 11.333333333333334
34.0 0 curveto
stroke

grestore

gsave
gsave
1 1 0 0 setcmykcolor
28.0 0 translate

0 0 moveto
0.30954966 setlinewidth
13.333333333333334 13.333333333333334
26.666666666666668 13.333333333333334
40.0 0 curveto
stroke

grestore

gsave
1 1 0 0 setcmykcolor
86.0 0 translate

0 0 moveto
0.39359368 setlinewidth
10.0 10.0
20.0 10.0
30.0 0 curveto
stroke

grestore

gsave
gsave
1 1 0 0 setcmykcolor
28.0 0 translate

0 0 moveto
0.31689509 setlinewidth
8.666666666666666 8.666666666666666
17.333333333333332 8.666666666666666
26.0 0 curveto
stroke

grestore

gsave
gsave
1 1 0 0 setcmykcolor
62.0 0 translate

0 0 moveto
1.66469761 setlinewidth
4.0 4.0
8.0 4.0
12.0 0 curveto
stroke

grestore

gsave
gsave
1 1 0 0 setcmykcolor
40.0 0 translate

0 0 moveto
0.27269499999999997 setlinewidth
16.666666666666668 16.666666666666668
33.333333333333336 16.666666666666668
50.0 0 curveto
stroke

grestore

gsave
gsave
1 1 0 0 setcmykcolor
56.0 0 translate

0 0 moveto
0.38026247 setlinewidth
2.0 2.0
4.0 2.0
6.0 0 curveto
stroke

grestore

gsave
gsave
gsave
gsave
gsave
gsave
gsave
gsave
gsave
1 1 0 0 setcmykcolor
74.0 0 translate

0 0 moveto
0.48421829 setlinewidth
10.0 10.0
20.0 10.0
30.0 0 curveto
stroke

grestore

gsave
1 1 0 0 setcmykcolor
52.0 0 translate

0 0 moveto
0.36917294 setlinewidth
9.333333333333334 9.333333333333334
18.666666666666668 9.333333333333334
28.0 0 curveto
stroke

grestore

gsave
gsave
1 1 0 0 setcmykcolor
4.0 0 translate

0 0 moveto
0.30822259 setlinewidth
37.333333333333336 37.333333333333336
74.66666666666667 37.333333333333336
112.0 0 curveto
stroke

grestore

gsave
1 1 0 0 setcmykcolor
30.0 0 translate

0 0 moveto
0.427685 setlinewidth
20.666666666666668 20.666666666666668
41.333333333333336 20.666666666666668
62.0 0 curveto
stroke

grestore

gsave
gsave
1 1 0 0 setcmykcolor
20.0 0 translate

0 0 moveto
0.30850911000000003 setlinewidth
20.0 20.0
40.0 20.0
60.0 0 curveto
stroke

grestore

gsave
1 1 0 0 setcmykcolor
38.0 0 translate

0 0 moveto
0.24439793 setlinewidth
22.0 22.0
44.0 22.0
66.0 0 curveto
stroke

grestore

gsave
1 1 0 0 setcmykcolor
66.0 0 translate

0 0 moveto
0.39992342999999997 setlinewidth
14.666666666666666 14.666666666666666
29.333333333333332 14.666666666666666
44.0 0 curveto
stroke

grestore

gsave
gsave
gsave
1 1 0 0 setcmykcolor
6.0 0 translate

0 0 moveto
0.30063567999999996 setlinewidth
15.333333333333334 15.333333333333334
30.666666666666668 15.333333333333334
46.0 0 curveto
stroke

grestore

gsave
1 1 0 0 setcmykcolor
16.0 0 translate

0 0 moveto
0.33103677 setlinewidth
24.666666666666668 24.666666666666668
49.333333333333336 24.666666666666668
74.0 0 curveto
stroke

grestore

gsave
gsave
gsave
1 1 0 0 setcmykcolor
8.0 0 translate

0 0 moveto
0.23666497000000003 setlinewidth
22.666666666666668 22.666666666666668
45.333333333333336 22.666666666666668
68.0 0 curveto
stroke

grestore

gsave
1 1 0 0 setcmykcolor
28.0 0 translate

0 0 moveto
0.14607507 setlinewidth
23.333333333333332 23.333333333333332
46.666666666666664 23.333333333333332
70.0 0 curveto
stroke

grestore

gsave
gsave
gsave
1 1 0 0 setcmykcolor
16.0 0 translate

0 0 moveto
0.2834033 setlinewidth
15.333333333333334 15.333333333333334
30.666666666666668 15.333333333333334
46.0 0 curveto
stroke

grestore

gsave
1 1 0 0 setcmykcolor
54.0 0 translate

0 0 moveto
0.43893784999999996 setlinewidth
15.333333333333334 15.333333333333334
30.666666666666668 15.333333333333334
46.0 0 curveto
stroke

grestore

gsave
gsave
gsave
1 1 0 0 setcmykcolor
32.0 0 translate

0 0 moveto
0.25638741 setlinewidth
26.0 26.0
52.0 26.0
78.0 0 curveto
stroke

grestore

showpage
