max_regs,abs_max_reg_val,sites,regressions,site_1,site_2,distance,abs(distance),ind_site1,ind_site2
0.035363734,0.035363734,cbf1_r2_s1_site_1-8.csv.npy,"[[[0.035363734346212164, -0.002454498245338153, -0.0029055169319698346, -0.029625840901370458], [-0.0023323805561466637, -0.002844786713583086, -0.00863472220003583, 0.013422822564589813], [-0.016826002707773322, 0.015147041777086347, -0.0049396595285326845, 0.008068966943386073], [-0.016349879547756338, -0.008883790964057708, 0.016860305849689804, 0.008274621754241042]], [[0.0, 0.0, 0.0, 0.0], [0.0, 0.0, 0.0, 0.0], [0.0, 0.0, 0.0, 0.0], [0.0, 0.0, 0.0, 0.0]]]",1,8,-7,7,0,0
0.029822249,0.029822249,cbf1_r2_s1_site_3-6.csv.npy,"[[[0.0012065471985412094, 0.006398995382478739, 0.00037700143421878866, -0.009661654732129495], [-0.014501823701128624, -0.020405360107745043, 0.029822248955680745, 0.010005840627163526], [0.013521321097004104, 0.005053279213854465, -0.028516009962761636, 0.0038111528390737063], [-0.0002506128387102784, 0.007354435001944633, -0.001983035927101898, -0.004345476639105114]], [[0.0, 0.0, 0.0, 0.0], [0.0, 0.0, 0.0, 0.0], [0.0, 0.0, 0.0, 0.0], [0.0, 0.0, 0.0, 0.0]]]",3,6,-3,3,2,1
-0.025829234,0.025829234,cbf1_r2_s1_site_0-2.csv.npy,"[[[0.017782897813805026, -0.011806318464567983, -0.012356953466741477, 0.005345961246801231], [-0.003408446687311403, 0.013588556159556599, 0.010512823904305869, -0.021305097961383315], [-0.025829233855808133, 0.015907359134580225, 0.005774271480285144, 0.004714947960313815], [0.011133791324482587, -0.01836226845778471, -0.003873446767150781, 0.010365601276260362]], [[0.0, 0.0, 0.0, 0.0], [0.0, 0.0, 0.0, 0.0], [0.0, 0.0, 0.0, 0.0], [0.0, 0.0, 0.0, 0.0]]]",0,2,-2,2,0,2
0.030954966,0.030954966,cbf1_r2_s1_site_2-5.csv.npy,"[[[-0.0009185471305502196, -0.006430837975707507, 0.007835151934696824, 0.0010923603536699142], [0.01593161037706921, -0.01276308984554897, -0.004754921929316573, 0.0012185194829671178], [-0.008589960702192142, -0.011801392315917453, 0.00740686741392943, 0.013978789946470446], [-0.006559416182947489, 0.030954965816857197, -0.01145318365159341, -0.017354482052338877]], [[0.0, 0.0, 0.0, 0.0], [0.0, 0.0, 0.0, 0.0], [0.0, 0.0, 0.0, 0.0], [0.0, 0.0, 0.0, 0.0]]]",2,5,-3,3,1,3
0.039359368,0.039359368,cbf1_r2_s1_site_7-9.csv.npy,"[[[-0.006577958867874374, -0.008477316973688141, -0.011393832526003412, 0.02604631379801375], [-0.0018094710994846198, 0.0008011324746844662, 0.01682530086975328, -0.013297942522072975], [-0.030026044392755392, 0.027018309473676734, -0.006027349956190255, 0.007953665974593101], [0.03935936763655688, -0.019632320920026283, 0.00020687940526011448, -0.02108586280783795]], [[0.0, 0.0, 0.0, 0.0], [0.0, 0.0, 0.0, 0.0], [0.0, 0.0, 0.0, 0.0], [0.0, 0.0, 0.0, 0.0]]]",7,9,-2,2,0,3
-0.045035116,0.045035116,cbf1_r2_s1_site_5-7.csv.npy,"[[[0.0375139832566933, -0.01799728827063117, -0.0036399084597642005, -0.017527941481497326], [-0.016461826264108876, 0.014578092644207803, -0.009081527034183412, 0.008628760003936356], [-0.04503511603420501, 0.018775690448224247, 0.014793797614514588, 0.01299226274097491], [0.023402224153008706, -0.014601017883809915, -0.0019754767579104365, -0.0034044181430243656]], [[0.0, 0.0, 0.0, 0.0], [0.0, 0.0, 0.0, 0.0], [0.0, 0.0, 0.0, 0.0], [0.0, 0.0, 0.0, 0.0]]]",5,7,-2,2,0,2
0.031689509,0.031689509,cbf1_r2_s1_site_2-4.csv.npy,"[[[0.026498494189598203, -0.0034512466095091036, -0.009385231569212605, -0.012760821355517734], [-0.016849721358024393, -0.00455640346989867, 0.023181351894355228, -0.000397938339633595], [-0.024707312730168903, 0.03168950928493234, -0.009863064774432847, 0.0046515446404838505], [0.016753572162420034, -0.022541375093093074, -0.0033634579336922032, 0.00790877396882429]], [[0.0, 0.0, 0.0, 0.0], [0.0, 0.0, 0.0, 0.0], [0.0, 0.0, 0.0, 0.0], [0.0, 0.0, 0.0, 0.0]]]",2,4,-2,2,1,2
-0.047388493,0.047388493,cbf1_r2_s1_site_7-8.csv.npy,"[[[0.04690883556947871, -0.04738849293381723, -0.004576658367688886, 0.006640607883972392], [-0.026076956221007266, 0.023591034206435, 0.007923446238840417, -0.0053788230113878364], [-0.037634621295553713, 0.02091052509841154, 0.033198674275078235, -0.017037639759412984], [0.015307704333486645, 0.004428993779247242, -0.03755175516283043, 0.01524939842514056]], [[0.0, 0.0, 0.0, 0.0], [0.0, 0.0, 0.0, 0.0], [0.0, 0.0, 0.0, 0.0], [0.0, 0.0, 0.0, 0.0]]]",7,8,-1,1,1,0
0.166469761,0.166469761,cbf1_r2_s1_site_5-6.csv.npy,"[[[0.16646976138288305, -0.10173025196678456, -0.014431530581474276, -0.05147951825370918], [-0.1409118598751519, 0.07395107400177052, 0.04425837593936809, 0.0184335591373934], [0.07269217973815885, -0.01560815319875854, -0.02680524654910967, -0.03201630897520505], [-0.09760708387818033, 0.03925153580619822, -0.00024711972228555734, 0.06405043769328163]], [[0.0, 0.0, 0.0, 0.0], [0.0, 0.0, 0.0, 0.0], [0.0, 0.0, 0.0, 0.0], [0.0, 0.0, 0.0, 0.0]]]",5,6,-1,1,0,0
-0.036938679,0.036938679,cbf1_r2_s1_site_1-9.csv.npy,"[[[-0.00871761733723316, 0.02906049940303443, -0.023382918616287128, 0.0042032834065650095], [0.003989120265476251, -0.012376078855037166, 0.014854051258234195, -0.005449722915522091], [-0.016938562690463514, 0.020684392390596, -0.025123368711161886, 0.02072761455891719], [0.021509595183076064, -0.03693867897446726, 0.03288525878090937, -0.01992572423846937]], [[0.0, 0.0, 0.0, 0.0], [0.0, 0.0, 0.0, 0.0], [0.0, 0.0, 0.0, 0.0], [0.0, 0.0, 0.0, 0.0]]]",1,9,-8,8,1,3
0.0272695,0.0272695,cbf1_r2_s1_site_3-7.csv.npy,"[[[-0.008721564301258932, -0.015197380382511626, 0.019178179698151457, 0.0033886203448862994], [-0.010902382517153456, -0.010675614070531528, -0.005905452682128214, 0.026705778315401513], [0.010926169071396727, 0.0272694997592788, -0.025593847089575128, -0.01225569146019961], [0.008563235252046511, -0.00024550768347501005, 0.011405562317070473, -0.017167412889693943]], [[0.0, 0.0, 0.0, 0.0], [0.0, 0.0, 0.0, 0.0], [0.0, 0.0, 0.0, 0.0], [0.0, 0.0, 0.0, 0.0]]]",3,7,-4,4,1,2
-0.040081473,0.040081473,cbf1_r2_s1_site_0-3.csv.npy,"[[[-0.0009546626562848146, -0.006865356133977169, -0.0010602492172959224, 0.011767847190961822], [0.012104713679053858, -0.04008147255699242, 0.035977735099988944, -0.0075906268556811705], [-0.004685413388908419, 0.028365137270497484, -0.013909350192164965, -0.01209552179687308], [-0.006389440745966848, 0.01701916214006322, -0.020986952717325494, 0.00739386306783477]], [[0.0, 0.0, 0.0, 0.0], [0.0, 0.0, 0.0, 0.0], [0.0, 0.0, 0.0, 0.0], [0.0, 0.0, 0.0, 0.0]]]",0,3,-3,3,1,1
0.038026247,0.038026247,cbf1_r2_s1_site_4-5.csv.npy,"[[[-0.006053393914571954, -0.02883762688386973, -0.0008660455448008277, 0.038026246787247746], [0.011766283225044456, 0.02517049657946603, -0.007715009507282913, -0.029037382374524762], [-0.004355623709866976, -0.020648512776539073, 0.009902588466541127, 0.01548176216667861], [-0.0016872804467364347, 0.0244529965660683, -0.0013692855318879083, -0.025630435699583298]], [[0.0, 0.0, 0.0, 0.0], [0.0, 0.0, 0.0, 0.0], [0.0, 0.0, 0.0, 0.0], [0.0, 0.0, 0.0, 0.0]]]",4,5,-1,1,3,0
-0.043317576,0.043317576,cbf1_r2_s1_site_1-2.csv.npy,"[[[0.008148391697189243, -0.017338967515215062, 0.030762164052920867, -0.022962280652682403], [-0.029624096371150294, 0.0043125033415721175, -0.005826500600006412, 0.03133062976640716], [0.04046971073784402, -0.0005713715358331383, 0.0018857035534257142, -0.04331757631577038], [-0.02077785360955402, 0.01452314293007669, -0.0279359438668575, 0.03437149209709685]], [[0.0, 0.0, 0.0, 0.0], [0.0, 0.0, 0.0, 0.0], [0.0, 0.0, 0.0, 0.0], [0.0, 0.0, 0.0, 0.0]]]",1,2,-1,1,3,2
-0.043709255,0.043709255,cbf1_r2_s1_site_0-8.csv.npy,"[[[-0.04370925538989186, 0.009006606606275608, 0.0314274034524434, 0.003988626318038213], [0.005904140054651305, 0.003647430240070495, -0.009155315218755268, -0.004118615815383789], [0.020624431908543007, 0.0035466868317027087, -0.007552219436106333, -0.014033731110960155], [0.018485909378918017, -0.015627517575121704, -0.01582132241747203, 0.013842572668718647]], [[0.0, 0.0, 0.0, 0.0], [0.0, 0.0, 0.0, 0.0], [0.0, 0.0, 0.0, 0.0], [0.0, 0.0, 0.0, 0.0]]]",0,8,-8,8,0,0
-0.023161126,0.023161126,cbf1_r2_s1_site_2-6.csv.npy,"[[[0.021562664765205908, -0.012302124197888382, -0.013601452477383756, 0.004772094671581595], [-0.023161125796995898, -0.012257663792183366, 0.01674507175807019, 0.016791446777374416], [0.001108736864196727, 0.012933710429491811, 0.0004067283479762516, -0.01449714031594554], [0.0006178447216994118, 0.010597664365351724, -0.002669259372831298, -0.007082747829138419]], [[0.0, 0.0, 0.0, 0.0], [0.0, 0.0, 0.0, 0.0], [0.0, 0.0, 0.0, 0.0], [0.0, 0.0, 0.0, 0.0]]]",2,6,-4,4,0,1
-0.040119594,0.040119594,cbf1_r2_s1_site_0-1.csv.npy,"[[[-0.016578998259332636, -0.040119594081397515, 0.029029606220781608, 0.027338390011054533], [0.0175943515260919, 0.012944906550050553, -0.003909059722755616, -0.023789393550959718], [0.011962819936434962, 0.0028065439916546177, -0.0062251922210207755, -0.007293374208067361], [-0.012002529489688187, 0.02350059515814363, -0.019438824097845128, 0.004926757292040605]], [[0.0, 0.0, 0.0, 0.0], [0.0, 0.0, 0.0, 0.0], [0.0, 0.0, 0.0, 0.0], [0.0, 0.0, 0.0, 0.0]]]",0,1,-1,1,1,0
-0.039887357,0.039887357,cbf1_r2_s1_site_3-5.csv.npy,"[[[-0.020204581217062194, 0.038364011169570646, 0.02509695760684794, -0.039887356959544484], [-0.0077629411846354595, -0.015871753469502967, -0.0024406894852057005, 0.026529103988550958], [0.011479842691806479, -0.011422146439435333, -0.0038282166315379957, 0.0003859834118450658], [0.017544252936737986, -0.010340840548012759, -0.01940038854277616, 0.012308077989164508]], [[0.0, 0.0, 0.0, 0.0], [0.0, 0.0, 0.0, 0.0], [0.0, 0.0, 0.0, 0.0], [0.0, 0.0, 0.0, 0.0]]]",3,5,-2,2,3,0
-0.040133466,0.040133466,cbf1_r2_s1_site_6-9.csv.npy,"[[[0.030932108867063417, 0.00231028739659889, -0.040133465814658494, 0.008370904174842167], [-0.004510400303977923, -0.019684185551025354, 0.021197662801509736, 0.005723774169070027], [-0.009138945603744324, 0.02203784163827966, 0.012807543875521238, -0.022952674190034664], [-0.016562175624339745, -0.004363371810409277, 0.007675921547454807, 0.008577336599602152]], [[0.0, 0.0, 0.0, 0.0], [0.0, 0.0, 0.0, 0.0], [0.0, 0.0, 0.0, 0.0], [0.0, 0.0, 0.0, 0.0]]]",6,9,-3,3,2,0
-0.026862338,0.026862338,cbf1_r2_s1_site_4-7.csv.npy,"[[[0.006324315727794837, -0.017258452945155822, 0.0001331538578899249, 0.008064963868161638], [0.021916786337834386, -0.005104284435076469, -0.005827875948692125, -0.005040106514035049], [-0.0006932485578289121, 0.011673511997760191, 0.0007398259817222234, -0.013209600743169604], [-0.026862337984992594, 0.010609916603398557, 0.005104453905799787, 0.009801857208852323]], [[0.0, 0.0, 0.0, 0.0], [0.0, 0.0, 0.0, 0.0], [0.0, 0.0, 0.0, 0.0], [0.0, 0.0, 0.0, 0.0]]]",4,7,-3,3,0,3
-0.147689172,0.147689172,cbf1_r2_s1_site_3-4.csv.npy,"[[[0.014088616430141431, -0.022158285891662553, 0.06462592218292873, -0.057789391270353034], [0.021296730083767687, -0.06849291623719188, 0.06184514113896664, -0.016079810262448056], [0.031818813645202705, 0.009914501470058613, 0.02571563136875172, -0.07045598406559939], [-0.0680684357424746, 0.07870972019455309, -0.14768917216196686, 0.13929930139517133]], [[0.0, 0.0, 0.0, 0.0], [0.0, 0.0, 0.0, 0.0], [0.0, 0.0, 0.0, 0.0], [0.0, 0.0, 0.0, 0.0]]]",3,4,-1,1,2,3
0.048421829,0.048421829,cbf1_r2_s1_site_6-8.csv.npy,"[[[0.005549813571823988, -0.005509612759501338, 0.014303367735776364, -0.008390535904762776], [-0.024076841198935002, 0.00667498623361544, 0.01785091176824707, -0.00222036809495777], [-0.0334145796022563, 0.016601568893931832, 0.005814412817271171, 0.016219141987901184], [0.04842182852372867, -0.018515553824155057, -0.03610813656156488, -0.005410394611862947]], [[0.0, 0.0, 0.0, 0.0], [0.0, 0.0, 0.0, 0.0], [0.0, 0.0, 0.0, 0.0], [0.0, 0.0, 0.0, 0.0]]]",6,8,-2,2,0,3
0.036917294,0.036917294,cbf1_r2_s1_site_4-6.csv.npy,"[[[0.011278385172961152, -0.0036008639822463907, -0.00439859883994941, -0.0005888305247891998], [0.018167992212835684, -0.015260560464605563, 0.004389690868307673, -0.0034477601594159555], [-0.01281284751925697, -0.01738148333310977, 0.0008075719948390588, 0.02271919476625741], [-0.01460262457323891, 0.03691729426678372, -0.0008755422910447988, -0.018997277040597067]], [[0.0, 0.0, 0.0, 0.0], [0.0, 0.0, 0.0, 0.0], [0.0, 0.0, 0.0, 0.0], [0.0, 0.0, 0.0, 0.0]]]",4,6,-2,2,1,3
-0.042089719,0.042089719,cbf1_r2_s1_site_1-3.csv.npy,"[[[0.00012694647514548124, 0.03084683441780859, -0.0013141815148440834, -0.029813619690604646], [0.015720578768026176, -0.04208971884675065, 0.029295674383877635, -0.003881885294842981], [-0.02810048784566497, 0.04110144637092119, -0.037198659686429526, 0.02472305128126742], [0.011881847110182704, -0.03119960345998594, 0.008624383300435013, 0.009502267984662834]], [[0.0, 0.0, 0.0, 0.0], [0.0, 0.0, 0.0, 0.0], [0.0, 0.0, 0.0, 0.0], [0.0, 0.0, 0.0, 0.0]]]",1,3,-2,2,1,1
0.030822259,0.030822259,cbf1_r2_s1_site_0-9.csv.npy,"[[[-0.0007569968664107066, -0.00790316578464329, -0.019834614847215822, 0.028165579039867914], [0.012223586330963546, -0.003442077822377037, 0.015664795898804644, -0.022246602931503174], [-0.023191445491361876, -0.01882406262031097, 0.01878664466121978, 0.02283505737963969], [0.011861757014323482, 0.030822258938390294, -0.013905317540611268, -0.027634672029227782]], [[0.0, 0.0, 0.0, 0.0], [0.0, 0.0, 0.0, 0.0], [0.0, 0.0, 0.0, 0.0], [0.0, 0.0, 0.0, 0.0]]]",0,9,-9,9,1,3
0.0427685,0.0427685,cbf1_r2_s1_site_2-7.csv.npy,"[[[0.006684682799002105, 0.006180279533911046, -0.014783844480912682, -0.0005058815883288313], [-0.00447456591896065, -0.018053804653799087, -0.0111917933568028, 0.036423908547515156], [0.012737740724950836, -0.0011457072259496587, -0.017984827222184405, 0.005565509338330994], [-0.014902555439707449, 0.013000536976844987, 0.042768499556995514, -0.039998705940512316]], [[0.0, 0.0, 0.0, 0.0], [0.0, 0.0, 0.0, 0.0], [0.0, 0.0, 0.0, 0.0], [0.0, 0.0, 0.0, 0.0]]]",2,7,-5,5,2,3
-0.047281689,0.047281689,cbf1_r2_s1_site_8-9.csv.npy,"[[[0.011651937697601391, 0.00022089188525123852, 0.0029171439571312233, -0.013629765722418374], [-0.0472816893496488, 0.02541426635228959, -0.0047776665066199256, 0.02617278622754663], [0.04099440463447809, -0.026707349359683812, 0.02566943903520545, -0.039651794366920616], [-0.00463703591858606, 0.0009473225056862426, -0.0233877508979901, 0.027200479088145334]], [[0.0, 0.0, 0.0, 0.0], [0.0, 0.0, 0.0, 0.0], [0.0, 0.0, 0.0, 0.0], [0.0, 0.0, 0.0, 0.0]]]",8,9,-1,1,0,1
0.030850911,0.030850911,cbf1_r2_s1_site_1-6.csv.npy,"[[[-0.0013108527797337625, -0.024428168033410223, 0.012189376235134823, 0.014014915266686771], [-0.004205636984612474, 0.015890573669488022, 0.013649681248720763, -0.026823366711929666], [0.015615841245870406, 0.02623518577114057, -0.02253917561154028, -0.017275218824402524], [-0.010028291807463263, -0.017472111164767355, -0.002687566072811714, 0.030850910967273704]], [[0.0, 0.0, 0.0, 0.0], [0.0, 0.0, 0.0, 0.0], [0.0, 0.0, 0.0, 0.0], [0.0, 0.0, 0.0, 0.0]]]",1,6,-5,5,3,3
0.024439793,0.024439793,cbf1_r2_s1_site_3-8.csv.npy,"[[[0.004102430373402591, -0.004843222739616169, 0.014338473234818794, -0.012971741039107641], [-0.013865208658437433, -0.015239973373014493, 0.013032634432284342, 0.017213430457511465], [-0.015423783545808563, 0.009761417035295912, -0.011267350327191944, 0.014697730225547904], [0.024439792515383557, 0.010362457857509683, -0.016168458139429832, -0.018949373397632963]], [[0.0, 0.0, 0.0, 0.0], [0.0, 0.0, 0.0, 0.0], [0.0, 0.0, 0.0, 0.0], [0.0, 0.0, 0.0, 0.0]]]",3,8,-5,5,0,3
0.039992343,0.039992343,cbf1_r2_s1_site_5-9.csv.npy,"[[[-0.03229570406051821, 0.02449734314361404, 0.039992343011955804, -0.030757762686231524], [0.009602935703179308, -0.027785595798969945, -0.010558396361804835, 0.030649971449178037], [-0.00588031742998688, 0.0016609553023885061, -0.0034113062732145827, 0.007580743056124963], [0.02876743386071403, 6.927360134390651e-05, -0.0236676748128664, -0.006528519357419363]], [[0.0, 0.0, 0.0, 0.0], [0.0, 0.0, 0.0, 0.0], [0.0, 0.0, 0.0, 0.0], [0.0, 0.0, 0.0, 0.0]]]",5,9,-4,4,2,0
-0.029791848,0.029791848,cbf1_r2_s1_site_0-5.csv.npy,"[[[-0.019935955527268102, -0.0028690216497296627, -0.005773448227644387, 0.027021680346476586], [0.027861994958047705, -0.017274297620713145, 0.019201804339654956, -0.029791848332750927], [-0.008599349260531951, 0.00534321517916004, -0.02073802385820476, 0.022806591739789352], [0.00012540479597547295, 0.015760854486528475, 0.006711942301076026, -0.020126846441097704]], [[0.0, 0.0, 0.0, 0.0], [0.0, 0.0, 0.0, 0.0], [0.0, 0.0, 0.0, 0.0], [0.0, 0.0, 0.0, 0.0]]]",0,5,-5,5,3,1
-0.034575262,0.034575262,cbf1_r2_s1_site_5-8.csv.npy,"[[[-0.0024418108103121377, -0.014341332709581768, -0.008085565051418619, 0.027287779602893067], [0.010321919504138577, -0.02067305930838655, 0.008438297449998645, -0.006283829014894942], [-0.03457526234403366, 0.024903869406111404, 0.016720789622763136, -0.007701463739530154], [0.025595212496242605, 0.010443332451747799, -0.01732555890068697, -0.013394024740375893]], [[0.0, 0.0, 0.0, 0.0], [0.0, 0.0, 0.0, 0.0], [0.0, 0.0, 0.0, 0.0], [0.0, 0.0, 0.0, 0.0]]]",5,8,-3,3,0,2
0.030063568,0.030063568,cbf1_r2_s1_site_0-4.csv.npy,"[[[0.0016891515663249484, 0.0019957929705706227, -0.00040553928632733793, -0.0018668002304086384], [0.002767788510233062, -0.024836379621769773, 0.030063567988802435, -0.007832487832132194], [-0.007024166500845081, 0.016686913775450625, -0.019115260674276706, 0.00824127452284798], [0.0026756829788465923, 0.005075108743421927, -0.009901886600241465, 0.0015655517025604678]], [[0.0, 0.0, 0.0, 0.0], [0.0, 0.0, 0.0, 0.0], [0.0, 0.0, 0.0, 0.0], [0.0, 0.0, 0.0, 0.0]]]",0,4,-4,4,2,1
0.033103677,0.033103677,cbf1_r2_s1_site_1-7.csv.npy,"[[[0.003842554058570493, 0.008657556015971247, -0.006516624599326156, -0.00593200075359252], [0.008963206138835802, -0.02182117670608259, 0.004141283593520118, 0.009829624005577797], [-0.032978671404110746, 0.033103677197214715, 0.001676967446837551, -0.0023577282946178743], [0.020136006159144085, -0.01880687373646768, 0.0007019433385703571, -0.0016686192855545543]], [[0.0, 0.0, 0.0, 0.0], [0.0, 0.0, 0.0, 0.0], [0.0, 0.0, 0.0, 0.0], [0.0, 0.0, 0.0, 0.0]]]",1,7,-6,6,1,2
-0.030306405,0.030306405,cbf1_r2_s1_site_3-9.csv.npy,"[[[-0.004259293595244316, 0.013057349173283671, -0.015600706918709774, 0.0014875399323232177], [0.01188641707573508, -0.02183751500011493, 0.016953289822771715, -0.006112584857026028], [-0.03030640496458576, 0.02149762033346025, 0.0003397986985467325, 0.01044206583833271], [0.022012256855619024, -0.012568080171297498, -0.0020294725148639254, -0.0059998970828589945]], [[0.0, 0.0, 0.0, 0.0], [0.0, 0.0, 0.0, 0.0], [0.0, 0.0, 0.0, 0.0], [0.0, 0.0, 0.0, 0.0]]]",3,9,-6,6,0,2
-0.043068481,0.043068481,cbf1_r2_s1_site_2-3.csv.npy,"[[[0.02344403838746098, 0.008532984225220796, -0.03249031996139513, 0.0007147927488954574], [-0.03583239645454615, -0.01811466285146579, 0.0328748584136131, 0.021263675648438993], [0.017869386132986564, 0.0005597575561792471, 0.02180683651445215, -0.04306848068097512], [-0.005651150483600425, 0.008553137183034782, -0.021327960231285057, 0.02060421038548064]], [[0.0, 0.0, 0.0, 0.0], [0.0, 0.0, 0.0, 0.0], [0.0, 0.0, 0.0, 0.0], [0.0, 0.0, 0.0, 0.0]]]",2,3,-1,1,3,2
0.023666497,0.023666497,cbf1_r2_s1_site_0-6.csv.npy,"[[[-0.00278951693591969, 0.0030796465594483137, 0.0175820903370531, -0.017829534031114716], [-0.005947319548344403, -0.006389755563958036, -0.008445869325761681, 0.02366649715796153], [0.007019181138828905, -0.0051406294131052955, -0.011664941008975136, 0.00853801236958929], [0.0011422713651748654, 0.008568338764015297, 0.0031218869377301526, -0.015019752105353413]], [[0.0, 0.0, 0.0, 0.0], [0.0, 0.0, 0.0, 0.0], [0.0, 0.0, 0.0, 0.0], [0.0, 0.0, 0.0, 0.0]]]",0,6,-6,6,3,1
0.014607507,0.014607507,cbf1_r2_s1_site_2-8.csv.npy,"[[[-0.0048764748227288195, 0.014607506761382082, 0.0033796762709927992, -0.01226502654190006], [0.014082946671454044, -0.008961190739627681, -0.00038509754069578767, -0.003003882149521908], [0.004386771761565685, -0.006098887492498209, -0.008257813126451196, 0.010512328868742827], [-0.013017804996588172, 0.0004634627371997324, 0.005183882665775192, 0.005467040589993215]], [[0.0, 0.0, 0.0, 0.0], [0.0, 0.0, 0.0, 0.0], [0.0, 0.0, 0.0, 0.0], [0.0, 0.0, 0.0, 0.0]]]",2,8,-6,6,1,0
-0.043363749,0.043363749,cbf1_r2_s1_site_6-7.csv.npy,"[[[0.04003658562852232, -0.03907646575996654, -0.015830864142141594, 0.02032773663495475], [-0.03412777386925841, 0.002546758904688081, 0.03016907903569073, -0.0005369795377629995], [0.005804718897645163, 0.001541176563252191, 0.027850739422249787, -0.041474504673081766], [-0.010677327913415302, 0.035878577723374015, -0.043363749019223685, 0.019544189240930092]], [[0.0, 0.0, 0.0, 0.0], [0.0, 0.0, 0.0, 0.0], [0.0, 0.0, 0.0, 0.0], [0.0, 0.0, 0.0, 0.0]]]",6,7,-1,1,2,3
-0.036340398,0.036340398,cbf1_r2_s1_site_4-9.csv.npy,"[[[-0.009854038463708206, -0.003151896816206425, -0.004440965468620876, 0.015191815357371819], [0.022315831574974174, -0.010949389013723164, -0.019639929684300096, 0.002391591668530552], [-0.019297824426716254, -0.013951491874889888, 0.021086599475238266, 0.018978544335941903], [0.006180654202254892, 0.027074227339681116, 0.002999029426074112, -0.03634039846658502]], [[0.0, 0.0, 0.0, 0.0], [0.0, 0.0, 0.0, 0.0], [0.0, 0.0, 0.0, 0.0], [0.0, 0.0, 0.0, 0.0]]]",4,9,-5,5,3,3
0.02834033,0.02834033,cbf1_r2_s1_site_1-5.csv.npy,"[[[0.006247561002976582, 0.02834032951806011, -0.005229811410931242, -0.02660135284366956], [0.007302308806886874, -0.017097018918653947, -0.0012227693064103182, 0.010270301869799155], [-0.006428702091580241, -0.0001767300316444959, -0.010838579303763139, 0.01676398107934197], [-0.00732685883607438, -0.01006251536017128, 0.017272232615623384, 0.00045040884420908384]], [[0.0, 0.0, 0.0, 0.0], [0.0, 0.0, 0.0, 0.0], [0.0, 0.0, 0.0, 0.0], [0.0, 0.0, 0.0, 0.0]]]",1,5,-4,4,1,0
0.043893785,0.043893785,cbf1_r2_s1_site_4-8.csv.npy,"[[[0.016909923011550285, -0.002055257411644026, -0.034562368965872614, 0.024295346502774724], [0.008054748276086376, -0.03156528935582719, 0.0438937850665911, -0.025963565378124095], [-0.007831426334077466, 0.014196170469187051, -0.022558626187470333, 0.016355151974722176], [-0.017554026248131273, 0.019069435237090357, 0.01222850494736673, -0.0158997617574332]], [[0.0, 0.0, 0.0, 0.0], [0.0, 0.0, 0.0, 0.0], [0.0, 0.0, 0.0, 0.0], [0.0, 0.0, 0.0, 0.0]]]",4,8,-4,4,2,1
-0.043747238,0.043747238,cbf1_r2_s1_site_1-4.csv.npy,"[[[0.012694361153707855, -0.008831363320857143, -0.0009001595488576757, -0.001448924178770058], [-0.04374723752358458, 0.019631672439315472, 0.025044472201051157, -0.0007650157494830369], [0.0034464163452777707, 0.010531468748966035, -0.01959699595890947, 0.0027311847261067934], [0.02666972948549021, -0.020684704999212218, -0.004751090189098417, -0.0005322647221662536]], [[0.0, 0.0, 0.0, 0.0], [0.0, 0.0, 0.0, 0.0], [0.0, 0.0, 0.0, 0.0], [0.0, 0.0, 0.0, 0.0]]]",1,4,-3,3,0,1
-0.034156853,0.034156853,cbf1_r2_s1_site_0-7.csv.npy,"[[[0.0238951268085455, -0.011561730248350374, -0.0118602001025264, 0.0006451755188329268], [0.006010990832907482, -0.0019613766771188717, 0.005741343398756996, -0.00853019154240312], [0.005302410327756961, -0.007788709661219795, 0.006893034605399099, -0.005719365847997452], [-0.034156852565172015, 0.021155743608459936, -0.0005888622122440304, 0.013289946208334761]], [[0.0, 0.0, 0.0, 0.0], [0.0, 0.0, 0.0, 0.0], [0.0, 0.0, 0.0, 0.0], [0.0, 0.0, 0.0, 0.0]]]",0,7,-7,7,0,3
0.025638741,0.025638741,cbf1_r2_s1_site_2-9.csv.npy,"[[[-0.006744165344235498, -0.016540089711922393, -0.00267904137755692, 0.02563874096810373], [-0.012281881002634016, 0.013298491272258729, 0.019166468543119954, -0.022674419932999654], [-0.004485204106951968, 0.010942612079277386, 0.005184728894299363, -0.01061394868885019], [0.02402161604946554, -0.007200265414288362, -0.021388455890717924, 0.005540845963212639]], [[0.0, 0.0, 0.0, 0.0], [0.0, 0.0, 0.0, 0.0], [0.0, 0.0, 0.0, 0.0], [0.0, 0.0, 0.0, 0.0]]]",2,9,-7,7,3,0