%!PS-Adobe-3.0 EPSF-1.2
%%BoundingBox: -10 0 300 100

/Times-Roman findfont 6 scalefont setfont

1 setlinejoin

25 20 translate

4 -16 moveto
(1) show
0 -1 moveto
0 -5 rlineto
stroke
gsave
/Times-Roman findfont 3.5 scalefont setfont
1 0 1 0 setcmykcolor
0.5 -10 moveto
(A) show
2 -1 moveto
0 -3 rlineto
stroke
1 1 0 0 setcmykcolor
2.7 -8 moveto
(C) show
4 -1 moveto
0 -3 rlineto
stroke
0 0 1 0.3 setcmykcolor
4.6 -10 moveto
(G) show
6 -1 moveto
0 -3 rlineto
stroke
0 1 1 0 setcmykcolor
6.8 -8 moveto
(T) show
8 -1 moveto
0 -3 rlineto
stroke
grestore
14 -16 moveto
(2) show
10 -1 moveto
0 -5 rlineto
stroke
gsave
/Times-Roman findfont 3.5 scalefont setfont
1 0 1 0 setcmykcolor
10.5 -10 moveto
(A) show
12 -1 moveto
0 -3 rlineto
stroke
1 1 0 0 setcmykcolor
12.7 -8 moveto
(C) show
14 -1 moveto
0 -3 rlineto
stroke
0 0 1 0.3 setcmykcolor
14.6 -10 moveto
(G) show
16 -1 moveto
0 -3 rlineto
stroke
0 1 1 0 setcmykcolor
16.8 -8 moveto
(T) show
18 -1 moveto
0 -3 rlineto
stroke
grestore
24 -16 moveto
(3) show
20 -1 moveto
0 -5 rlineto
stroke
gsave
/Times-Roman findfont 3.5 scalefont setfont
1 0 1 0 setcmykcolor
20.5 -10 moveto
(A) show
22 -1 moveto
0 -3 rlineto
stroke
1 1 0 0 setcmykcolor
22.7 -8 moveto
(C) show
24 -1 moveto
0 -3 rlineto
stroke
0 0 1 0.3 setcmykcolor
24.6 -10 moveto
(G) show
26 -1 moveto
0 -3 rlineto
stroke
0 1 1 0 setcmykcolor
26.8 -8 moveto
(T) show
28 -1 moveto
0 -3 rlineto
stroke
grestore
34 -16 moveto
(4) show
30 -1 moveto
0 -5 rlineto
stroke
gsave
/Times-Roman findfont 3.5 scalefont setfont
1 0 1 0 setcmykcolor
30.5 -10 moveto
(A) show
32 -1 moveto
0 -3 rlineto
stroke
1 1 0 0 setcmykcolor
32.7 -8 moveto
(C) show
34 -1 moveto
0 -3 rlineto
stroke
0 0 1 0.3 setcmykcolor
34.6 -10 moveto
(G) show
36 -1 moveto
0 -3 rlineto
stroke
0 1 1 0 setcmykcolor
36.8 -8 moveto
(T) show
38 -1 moveto
0 -3 rlineto
stroke
grestore
44 -16 moveto
(5) show
40 -1 moveto
0 -5 rlineto
stroke
gsave
/Times-Roman findfont 3.5 scalefont setfont
1 0 1 0 setcmykcolor
40.5 -10 moveto
(A) show
42 -1 moveto
0 -3 rlineto
stroke
1 1 0 0 setcmykcolor
42.7 -8 moveto
(C) show
44 -1 moveto
0 -3 rlineto
stroke
0 0 1 0.3 setcmykcolor
44.6 -10 moveto
(G) show
46 -1 moveto
0 -3 rlineto
stroke
0 1 1 0 setcmykcolor
46.8 -8 moveto
(T) show
48 -1 moveto
0 -3 rlineto
stroke
grestore
54 -16 moveto
(6) show
50 -1 moveto
0 -5 rlineto
stroke
gsave
/Times-Roman findfont 3.5 scalefont setfont
1 0 1 0 setcmykcolor
50.5 -10 moveto
(A) show
52 -1 moveto
0 -3 rlineto
stroke
1 1 0 0 setcmykcolor
52.7 -8 moveto
(C) show
54 -1 moveto
0 -3 rlineto
stroke
0 0 1 0.3 setcmykcolor
54.6 -10 moveto
(G) show
56 -1 moveto
0 -3 rlineto
stroke
0 1 1 0 setcmykcolor
56.8 -8 moveto
(T) show
58 -1 moveto
0 -3 rlineto
stroke
grestore
64 -16 moveto
(7) show
60 -1 moveto
0 -5 rlineto
stroke
gsave
/Times-Roman findfont 3.5 scalefont setfont
1 0 1 0 setcmykcolor
60.5 -10 moveto
(A) show
62 -1 moveto
0 -3 rlineto
stroke
1 1 0 0 setcmykcolor
62.7 -8 moveto
(C) show
64 -1 moveto
0 -3 rlineto
stroke
0 0 1 0.3 setcmykcolor
64.6 -10 moveto
(G) show
66 -1 moveto
0 -3 rlineto
stroke
0 1 1 0 setcmykcolor
66.8 -8 moveto
(T) show
68 -1 moveto
0 -3 rlineto
stroke
grestore
74 -16 moveto
(8) show
70 -1 moveto
0 -5 rlineto
stroke
gsave
/Times-Roman findfont 3.5 scalefont setfont
1 0 1 0 setcmykcolor
70.5 -10 moveto
(A) show
72 -1 moveto
0 -3 rlineto
stroke
1 1 0 0 setcmykcolor
72.7 -8 moveto
(C) show
74 -1 moveto
0 -3 rlineto
stroke
0 0 1 0.3 setcmykcolor
74.6 -10 moveto
(G) show
76 -1 moveto
0 -3 rlineto
stroke
0 1 1 0 setcmykcolor
76.8 -8 moveto
(T) show
78 -1 moveto
0 -3 rlineto
stroke
grestore
84 -16 moveto
(9) show
80 -1 moveto
0 -5 rlineto
stroke
gsave
/Times-Roman findfont 3.5 scalefont setfont
1 0 1 0 setcmykcolor
80.5 -10 moveto
(A) show
82 -1 moveto
0 -3 rlineto
stroke
1 1 0 0 setcmykcolor
82.7 -8 moveto
(C) show
84 -1 moveto
0 -3 rlineto
stroke
0 0 1 0.3 setcmykcolor
84.6 -10 moveto
(G) show
86 -1 moveto
0 -3 rlineto
stroke
0 1 1 0 setcmykcolor
86.8 -8 moveto
(T) show
88 -1 moveto
0 -3 rlineto
stroke
grestore
92 -16 moveto
(10) show
90 -1 moveto
0 -5 rlineto
stroke
gsave
/Times-Roman findfont 3.5 scalefont setfont
1 0 1 0 setcmykcolor
90.5 -10 moveto
(A) show
92 -1 moveto
0 -3 rlineto
stroke
1 1 0 0 setcmykcolor
92.7 -8 moveto
(C) show
94 -1 moveto
0 -3 rlineto
stroke
0 0 1 0.3 setcmykcolor
94.6 -10 moveto
(G) show
96 -1 moveto
0 -3 rlineto
stroke
0 1 1 0 setcmykcolor
96.8 -8 moveto
(T) show
98 -1 moveto
0 -3 rlineto
stroke
grestore
0 -1 moveto
100 -1 lineto
stroke

-30 -9 moveto
(Nucleotide) show
-20 -16 moveto
(Site) show
gsave
/Times-Roman findfont 10 scalefont setfont
-20 100 moveto
(Regressions of phenotypes onto site pairs) show
-20 90 moveto
(at different sites) show
1 1 0 0 setcmykcolor
-20 80 moveto
30 0 rlineto
stroke
15 77.5 moveto
(Positive) show
grestore
gsave
1 1 0 0 setcmykcolor
12.0 0 translate

0 0 moveto
23.333333333333332 23.333333333333332
46.666666666666664 23.333333333333332
70.0 0 curveto
stroke

grestore

gsave
1 1 0 0 setcmykcolor
36.0 0 translate

0 0 moveto
9.333333333333334 9.333333333333334
18.666666666666668 9.333333333333334
28.0 0 curveto
stroke

grestore

gsave
gsave
1 1 0 0 setcmykcolor
24.0 0 translate

0 0 moveto
11.333333333333334 11.333333333333334
22.666666666666668 11.333333333333334
34.0 0 curveto
stroke

grestore

gsave
1 1 0 0 setcmykcolor
72.0 0 translate

0 0 moveto
8.666666666666666 8.666666666666666
17.333333333333332 8.666666666666666
26.0 0 curveto
stroke

grestore

gsave
gsave
1 1 0 0 setcmykcolor
24.0 0 translate

0 0 moveto
7.333333333333333 7.333333333333333
14.666666666666666 7.333333333333333
22.0 0 curveto
stroke

grestore

gsave
gsave
1 1 0 0 setcmykcolor
52.0 0 translate

0 0 moveto
3.3333333333333335 3.3333333333333335
6.666666666666667 3.3333333333333335
10.0 0 curveto
stroke

grestore

gsave
gsave
1 1 0 0 setcmykcolor
34.0 0 translate

0 0 moveto
14.0 14.0
28.0 14.0
42.0 0 curveto
stroke

grestore

gsave
gsave
1 1 0 0 setcmykcolor
48.0 0 translate

0 0 moveto
1.3333333333333333 1.3333333333333333
2.6666666666666665 1.3333333333333333
4.0 0 curveto
stroke

grestore

gsave
gsave
gsave
gsave
gsave
gsave
gsave
gsave
gsave
1 1 0 0 setcmykcolor
62.0 0 translate

0 0 moveto
8.666666666666666 8.666666666666666
17.333333333333332 8.666666666666666
26.0 0 curveto
stroke

grestore

gsave
1 1 0 0 setcmykcolor
44.0 0 translate

0 0 moveto
8.0 8.0
16.0 8.0
24.0 0 curveto
stroke

grestore

gsave
gsave
1 1 0 0 setcmykcolor
4.0 0 translate

0 0 moveto
31.333333333333332 31.333333333333332
62.666666666666664 31.333333333333332
94.0 0 curveto
stroke

grestore

gsave
1 1 0 0 setcmykcolor
26.0 0 translate

0 0 moveto
17.333333333333332 17.333333333333332
34.666666666666664 17.333333333333332
52.0 0 curveto
stroke

grestore

gsave
gsave
1 1 0 0 setcmykcolor
18.0 0 translate

0 0 moveto
16.666666666666668 16.666666666666668
33.333333333333336 16.666666666666668
50.0 0 curveto
stroke

grestore

gsave
1 1 0 0 setcmykcolor
32.0 0 translate

0 0 moveto
18.666666666666668 18.666666666666668
37.333333333333336 18.666666666666668
56.0 0 curveto
stroke

grestore

gsave
1 1 0 0 setcmykcolor
56.0 0 translate

0 0 moveto
12.0 12.0
24.0 12.0
36.0 0 curveto
stroke

grestore

gsave
gsave
gsave
1 1 0 0 setcmykcolor
6.0 0 translate

0 0 moveto
12.666666666666666 12.666666666666666
25.333333333333332 12.666666666666666
38.0 0 curveto
stroke

grestore

gsave
1 1 0 0 setcmykcolor
14.0 0 translate

0 0 moveto
20.666666666666668 20.666666666666668
41.333333333333336 20.666666666666668
62.0 0 curveto
stroke

grestore

gsave
gsave
gsave
1 1 0 0 setcmykcolor
8.0 0 translate

0 0 moveto
18.666666666666668 18.666666666666668
37.333333333333336 18.666666666666668
56.0 0 curveto
stroke

grestore

gsave
1 1 0 0 setcmykcolor
24.0 0 translate

0 0 moveto
19.333333333333332 19.333333333333332
38.666666666666664 19.333333333333332
58.0 0 curveto
stroke

grestore

gsave
gsave
gsave
1 1 0 0 setcmykcolor
14.0 0 translate

0 0 moveto
12.666666666666666 12.666666666666666
25.333333333333332 12.666666666666666
38.0 0 curveto
stroke

grestore

gsave
1 1 0 0 setcmykcolor
46.0 0 translate

0 0 moveto
12.666666666666666 12.666666666666666
25.333333333333332 12.666666666666666
38.0 0 curveto
stroke

grestore

gsave
gsave
gsave
1 1 0 0 setcmykcolor
28.0 0 translate

0 0 moveto
21.333333333333332 21.333333333333332
42.666666666666664 21.333333333333332
64.0 0 curveto
stroke

grestore

showpage
