/Users/saba.nafees/miniconda3/envs/napari/bin/python /Users/saba.nafees/PycharmProjects/TFBS/cbf1/cbf1_r2/updated-firstorder/tfbs-refactored-firstorder.py
mean
var
cov
reg11
PakiDim
P1i1
varP1i1
cov11i1
reg11i1
Pa1i1
P1D
varP1D
computed rFon1D
Regression of trait on site 1
[[ 0.0342988306  0.007711162  -0.0222543005 -0.0201717557]
 [ 0.0355940481 -0.0044056956 -0.0123093253 -0.0185360976]
 [ 0.0282538066  0.0211012285 -0.0416088628 -0.007615088 ]
 [-0.0298213687  0.0616963183 -0.0694535675  0.0388899913]
 [ 0.0691047661  0.0594358511 -0.0287453075 -0.0974259162]
 [-0.0797065187  0.0138955663  0.0489171052  0.0162221829]
 [ 0.0823262772 -0.0480728054  0.0447710015 -0.0779891166]
 [ 0.0429978151 -0.0469322991  0.0128160402 -0.0086946246]
 [ 0.0190012002 -0.0136000436 -0.0040420331 -0.0014587816]
 [ 0.01574165   -0.0098043043 -0.0246094141  0.0182662333]]
Regression on 1st order polynomial - orthogonalized within - rFon1D
[[ 0.0345883796  0.0072626294 -0.0223614493 -0.0199072941]
 [ 0.0364261965 -0.0042073144 -0.0120319328 -0.0198395662]
 [ 0.027908492   0.0205895843 -0.0406253921 -0.007755189 ]
 [-0.029273724   0.0619242067 -0.0695100041  0.0381681454]
 [ 0.0686294764  0.0586917482 -0.0282023347 -0.0967971705]
 [-0.0797342244  0.0143583213  0.0490260568  0.015717455 ]
 [ 0.0822032863 -0.0478221366  0.0449371119 -0.0782202891]
 [ 0.            0.            0.            0.          ]
 [ 0.0197149479 -0.0140162325 -0.0042650588 -0.0015386641]
 [ 0.            0.            0.            0.          ]]
Regression of trait on site 2 independent of 1
[0. 0. 0. 0.]
Regression on (site 1)x(site 2), independent of first order
[[0. 0. 0. 0.]
 [0. 0. 0. 0.]
 [0. 0. 0. 0.]
 [0. 0. 0. 0.]]
--- 8333.141884088516 seconds ---

Process finished with exit code 0
